<svg width="26" height="27" viewBox="0 0 26 27" fill="none" xmlns="http://www.w3.org/2000/svg">
<circle cx="10.5" cy="10.5" r="10" stroke="black"/>
<rect x="17.5862" y="17" width="12.065" height="2.21156" rx="1.10578" transform="rotate(45.8213 17.5862 17)" fill="black"/>
</svg>
